%YAML 1.1
%TAG !u! tag:unity3d.com,2011:
--- !u!114 &11400000
MonoBehaviour:
  m_ObjectHideFlags: 0
  m_CorrespondingSourceObject: {fileID: 0}
  m_PrefabInstance: {fileID: 0}
  m_PrefabAsset: {fileID: 0}
  m_GameObject: {fileID: 0}
  m_Enabled: 1
  m_EditorHideFlags: 0
  m_Script: {fileID: 11500000, guid: ee7ab3eeb06e04c59aba3df1c06b62d6, type: 3}
  m_Name: game_data
  m_EditorClassIdentifier: 
  playerData:
    ThrustRate: 0.2
    DecelerationRate: 0.02
    MaxThrust: 3
    RotationRate: 5
    MaxBullet: 4
    FiringCooldown: 0.1
  playerStartLife: 3
  playerMaxLife: 5
  playerRespawnInterval: 1
  pointsToGainLife: 10000
  bulletData:
    Speed: 6
    TimeToLive: 0.6
  asteroidData:
    SpeedRanges:
    - {x: 0.5, y: 1}
    - {x: 0.7, y: 1.2}
    - {x: 0.9, y: 1.4}
    Sizes:
    - 1
    - 0.6
    - 0.35
    Points: 140000003200000064000000
  asteroidSpawnRange: {x: 4, y: 7}
  enemyData:
    ThrustRate: 0.2
    DecelerationRate: 0.02
    MaxThrust: 2
    RotationRate: 5
    MaxBullet: 4
    FiringCooldown: 0.1
  enemyPoints: 200
  pointsToSpawnEnemy: 200
  enemyRespawnInterval: 3
